{
	"AssetInfoVersion": 2,
	"ShaderCodeToAssets": [
		{
			"ShaderMapHash": "C879F2E44B09E2B1A4264135CD5C0DE742973B7F",
			"Assets": [
				"None"
			]
		},
		{
			"ShaderMapHash": "151DCF26A8ACFF2D3CDEE01369275959ED364185",
			"Assets": [
				"None"
			]
		},
		{
			"ShaderMapHash": "16EDBB53A0EDFAFD44C0B4032DAF24FFBBE38043",
			"Assets": [
				"None"
			]
		},
		{
			"ShaderMapHash": "87269FFF5301DA7E20153F12F25DFB55D1B0D3AD",
			"Assets": [
				"None"
			]
		},
		{
			"ShaderMapHash": "25518ADCA93258B25AFF905A988090CDD5385922",
			"Assets": [
				"None"
			]
		},
		{
			"ShaderMapHash": "D2CFDE0B21689FAABC87F29D10E07B78263FE2B7",
			"Assets": [
				"None"
			]
		},
		{
			"ShaderMapHash": "134D410024E0685A1D3C84F04A388F8E6B3A96C2",
			"Assets": [
				"None"
			]
		},
		{
			"ShaderMapHash": "6A434447FA2F20DB59F99780913478FBF5C4CC51",
			"Assets": [
				"None"
			]
		},
		{
			"ShaderMapHash": "86F14FB26C33373B1B5C16BD417930B3C5E06098",
			"Assets": [
				"None"
			]
		},
		{
			"ShaderMapHash": "859C39513D4329DD2DA179B50F3D64875922EB1C",
			"Assets": [
				"None"
			]
		},
		{
			"ShaderMapHash": "90FA621128A4ED0E28E2CAB171A58CE61890D58A",
			"Assets": [
				"None"
			]
		},
		{
			"ShaderMapHash": "9F708B064933FE8F5D3A062F705180CE76B91C32",
			"Assets": [
				"None"
			]
		},
		{
			"ShaderMapHash": "E78A0F7ADF93CA8B5703067ED78D7F5973F907BD",
			"Assets": [
				"None"
			]
		},
		{
			"ShaderMapHash": "7447A5D2A3FADE50B95594475CBFC6293781107D",
			"Assets": [
				"None"
			]
		},
		{
			"ShaderMapHash": "5AA7B069907CF63C034C9E5CC6F57571B03A1100",
			"Assets": [
				"None"
			]
		},
		{
			"ShaderMapHash": "99B71194FE37A1BB23A63978FD748DFB17B5BBD4",
			"Assets": [
				"None"
			]
		},
		{
			"ShaderMapHash": "9D3AC6B5B30AD89FF79519A29359041951AF598A",
			"Assets": [
				"None"
			]
		},
		{
			"ShaderMapHash": "129EF1D1005D878ADC7C5334961CE09C7F5B1651",
			"Assets": [
				"None"
			]
		},
		{
			"ShaderMapHash": "F251B1BA2699B720D489599CB4C72E619EB68693",
			"Assets": [
				"None"
			]
		},
		{
			"ShaderMapHash": "4C1981F4E33FC5BC4345B6D4C5B064EE5E0845D1",
			"Assets": [
				"None"
			]
		},
		{
			"ShaderMapHash": "1C13795CCF23FE87A9F5E745B840295368AFFCCA",
			"Assets": [
				"None"
			]
		},
		{
			"ShaderMapHash": "430903D6BD5FA1EFA8C3D0733E2605812AD0C9DA",
			"Assets": [
				"None"
			]
		},
		{
			"ShaderMapHash": "47812D90AC7F621DDF3BED0CFF7F00FC294C130D",
			"Assets": [
				"None"
			]
		},
		{
			"ShaderMapHash": "D5F8915A3547D85A4EA9DE2FB3B377D6D864028C",
			"Assets": [
				"None"
			]
		},
		{
			"ShaderMapHash": "D12263B8728335B7D37FB0F90438D05CD00AA609",
			"Assets": [
				"None"
			]
		},
		{
			"ShaderMapHash": "E9AA000E82FC885AF7A6E8357D906627BBF85676",
			"Assets": [
				"None"
			]
		},
		{
			"ShaderMapHash": "4BEB6AB6DE86F32FBC3EA356BA28C32855CDACB6",
			"Assets": [
				"None"
			]
		},
		{
			"ShaderMapHash": "96CFEA9AAF57209D5F36CC7C3950C7ABEC98D800",
			"Assets": [
				"None"
			]
		},
		{
			"ShaderMapHash": "23D8BBFD27183BA45E39A28780CFBA8A6E9C215E",
			"Assets": [
				"None"
			]
		},
		{
			"ShaderMapHash": "050E6530751BB2DA5C83FDFE4F5BF447FAA23E3F",
			"Assets": [
				"None"
			]
		},
		{
			"ShaderMapHash": "967683B010C5871AECC439520FCFE8DD5C87B878",
			"Assets": [
				"None"
			]
		},
		{
			"ShaderMapHash": "A251EB0D1AB018A8321EB10BB2FCD7411FF6948C",
			"Assets": [
				"None"
			]
		},
		{
			"ShaderMapHash": "F86127417E90277B3DDD2DDADB0186A026207556",
			"Assets": [
				"None"
			]
		},
		{
			"ShaderMapHash": "4C05DD5B8E1C2C65DCC19900549502881D007E06",
			"Assets": [
				"None"
			]
		},
		{
			"ShaderMapHash": "451F992B3CA22423503243A4566A34019710BDE1",
			"Assets": [
				"None"
			]
		},
		{
			"ShaderMapHash": "0003EB595E035842E56001CBF597D773F3FB69C4",
			"Assets": [
				"None"
			]
		},
		{
			"ShaderMapHash": "781F889015BD891BDB4D6D30B376D033EF6A278E",
			"Assets": [
				"None"
			]
		},
		{
			"ShaderMapHash": "3BC27CEE37410E88818D0E44BB67992218EC0039",
			"Assets": [
				"None"
			]
		},
		{
			"ShaderMapHash": "CBCDFCE6C6647A81C269A3D3EF6CC128074E2455",
			"Assets": [
				"None"
			]
		},
		{
			"ShaderMapHash": "133C7DCDEA968775F7C19091C847772A58AAF5A8",
			"Assets": [
				"None"
			]
		},
		{
			"ShaderMapHash": "3785C26E8CE36D32C7179B4766C24AB9214A8696",
			"Assets": [
				"None"
			]
		},
		{
			"ShaderMapHash": "61105A05D09C786985A2C51BF5F7F833D8140083",
			"Assets": [
				"None"
			]
		},
		{
			"ShaderMapHash": "FEE3DA4BB8740A18B45BCD2E6AAD39ED4C31F12C",
			"Assets": [
				"None"
			]
		},
		{
			"ShaderMapHash": "E89163C9AAF3744BC1BC5346B86B0AEA66E5AC85",
			"Assets": [
				"None"
			]
		},
		{
			"ShaderMapHash": "EFD77DFAD98A092FC87F7E25D5CA402C3D697C6E",
			"Assets": [
				"None"
			]
		},
		{
			"ShaderMapHash": "9C137583960691121C442DBB62FEFD315659E557",
			"Assets": [
				"None"
			]
		},
		{
			"ShaderMapHash": "52AA61F08EE5DC9BEB78009BD4D71FB5D0F75C71",
			"Assets": [
				"None"
			]
		},
		{
			"ShaderMapHash": "A19267C26DE8AB2CCC56397F250654C71085F6DE",
			"Assets": [
				"None"
			]
		},
		{
			"ShaderMapHash": "15DEECA315CCD5BC81BB78E2F494F815CEC8CD6D",
			"Assets": [
				"None"
			]
		},
		{
			"ShaderMapHash": "A88492397E347375071308769F1F8E2CA0C94D92",
			"Assets": [
				"None"
			]
		},
		{
			"ShaderMapHash": "D0F65CCB21AFC968235D3FF015256E44F34EE4BE",
			"Assets": [
				"None"
			]
		},
		{
			"ShaderMapHash": "D20B977BCFD942EE5481C881009CFB2128586B41",
			"Assets": [
				"None"
			]
		},
		{
			"ShaderMapHash": "9B9931E6126426FED6DF2AFAE6B93BB25A7CB586",
			"Assets": [
				"None"
			]
		},
		{
			"ShaderMapHash": "E3549F752F63C334932045A20853D86C27BDDC3D",
			"Assets": [
				"None"
			]
		},
		{
			"ShaderMapHash": "922C8FE498961D5C8F9AFF2C8CEFB9A568DE741A",
			"Assets": [
				"None"
			]
		},
		{
			"ShaderMapHash": "AC20B21A680F21223D4354AE7985DE765AD1E187",
			"Assets": [
				"None"
			]
		},
		{
			"ShaderMapHash": "ED9593B6AAFC571DD7808F8CCC0FDC9C77613718",
			"Assets": [
				"None"
			]
		},
		{
			"ShaderMapHash": "59231C145EA02358B0F21FF066E01FA6013AD4CD",
			"Assets": [
				"None"
			]
		},
		{
			"ShaderMapHash": "67769AD9501FAD24678D0AF60BA9B77776B9594D",
			"Assets": [
				"None"
			]
		},
		{
			"ShaderMapHash": "0B942A28FA61DC350586FA122BA8B72B9CC02EB3",
			"Assets": [
				"None"
			]
		},
		{
			"ShaderMapHash": "7DF43DFFA416ED688BD6718C79261BA06E637A64",
			"Assets": [
				"None"
			]
		},
		{
			"ShaderMapHash": "560E3706EC280697CC44FBE5916B91B199DBC5D7",
			"Assets": [
				"None"
			]
		},
		{
			"ShaderMapHash": "8F353CD7D68C590C8047E57D62A65E80AD6D3283",
			"Assets": [
				"None"
			]
		},
		{
			"ShaderMapHash": "EFE996C2C2D940EE647322FB43F04F65436ACD9F",
			"Assets": [
				"None"
			]
		},
		{
			"ShaderMapHash": "D6314850C935EA706CE85840F31FF8118D4B02DB",
			"Assets": [
				"None"
			]
		},
		{
			"ShaderMapHash": "3B8D88CC402207B3F5D71659B899A737B6C0EFCE",
			"Assets": [
				"None"
			]
		},
		{
			"ShaderMapHash": "08F145C6FCFC489159788AF1224E426ADB4EDF5C",
			"Assets": [
				"None"
			]
		},
		{
			"ShaderMapHash": "E9EC9898C26154B470448A7118DD7676F9097108",
			"Assets": [
				"None"
			]
		},
		{
			"ShaderMapHash": "1BD50D73E1DD23A9F0AD539199AA2B0BEA37769C",
			"Assets": [
				"None"
			]
		},
		{
			"ShaderMapHash": "D414023B14A1CEF97648BF5D7BF665293998C3AE",
			"Assets": [
				"None"
			]
		}
	]
}